-- Merging decision tree log ---
provider#android.support.v4.content.FileProvider
INJECTED from C:\Users\Ryan\Desktop\upsscanner-app\platforms\android\app\src\main\AndroidManifest.xml:14:9-16:20
	android:grantUriPermissions
		ADDED from C:\Users\Ryan\Desktop\upsscanner-app\platforms\android\app\src\main\AndroidManifest.xml:14:92-126
	android:authorities
		INJECTED from C:\Users\Ryan\Desktop\upsscanner-app\platforms\android\app\src\main\AndroidManifest.xml
		ADDED from C:\Users\Ryan\Desktop\upsscanner-app\platforms\android\app\src\main\AndroidManifest.xml:14:19-66
	android:exported
		ADDED from C:\Users\Ryan\Desktop\upsscanner-app\platforms\android\app\src\main\AndroidManifest.xml:14:67-91
	android:name
		ADDED from C:\Users\Ryan\Desktop\upsscanner-app\platforms\android\app\src\main\AndroidManifest.xml:14:127-181
manifest
ADDED from C:\Users\Ryan\Desktop\upsscanner-app\platforms\android\app\src\main\AndroidManifest.xml:2:1-31:12
INJECTED from C:\Users\Ryan\Desktop\upsscanner-app\platforms\android\app\src\main\AndroidManifest.xml:2:1-31:12
INJECTED from C:\Users\Ryan\Desktop\upsscanner-app\platforms\android\app\src\main\AndroidManifest.xml:2:1-31:12
INJECTED from C:\Users\Ryan\Desktop\upsscanner-app\platforms\android\app\src\main\AndroidManifest.xml:2:1-31:12
MERGED from [:barcodescanner-release-2.1.5:] C:\Users\Ryan\.gradle\caches\transforms-1\files-1.1\barcodescanner-release-2.1.5.aar\28313927d321a02aa919b1e73a1e0c5e\AndroidManifest.xml:2:1-14:12
MERGED from [com.android.support:support-v4:27.1.1] C:\Users\Ryan\.gradle\caches\transforms-1\files-1.1\support-v4-27.1.1.aar\dc3417e6a5629dc9389eb13beef02185\AndroidManifest.xml:17:1-22:12
MERGED from [:CordovaLib] C:\Users\Ryan\Desktop\upsscanner-app\platforms\android\CordovaLib\build\intermediates\manifests\full\debug\AndroidManifest.xml:20:1-27:12
MERGED from [com.android.support:support-media-compat:27.1.1] C:\Users\Ryan\.gradle\caches\transforms-1\files-1.1\support-media-compat-27.1.1.aar\a2a0cbf7470e7ad0abddf0ba1dd96076\AndroidManifest.xml:17:1-22:12
MERGED from [com.android.support:support-fragment:27.1.1] C:\Users\Ryan\.gradle\caches\transforms-1\files-1.1\support-fragment-27.1.1.aar\71e8c4d1333351c65b5fb952db842e48\AndroidManifest.xml:17:1-22:12
MERGED from [com.android.support:support-core-ui:27.1.1] C:\Users\Ryan\.gradle\caches\transforms-1\files-1.1\support-core-ui-27.1.1.aar\56dc943007aaa9f860c6d36d2171f3aa\AndroidManifest.xml:17:1-22:12
MERGED from [com.android.support:support-core-utils:27.1.1] C:\Users\Ryan\.gradle\caches\transforms-1\files-1.1\support-core-utils-27.1.1.aar\ec1d92fb76c55d51f93db210ec47dc20\AndroidManifest.xml:17:1-22:12
MERGED from [com.android.support:support-compat:27.1.1] C:\Users\Ryan\.gradle\caches\transforms-1\files-1.1\support-compat-27.1.1.aar\9432ddee0df6783777d8427e86932476\AndroidManifest.xml:17:1-22:12
MERGED from [android.arch.lifecycle:runtime:1.1.0] C:\Users\Ryan\.gradle\caches\transforms-1\files-1.1\runtime-1.1.0.aar\68a221d15ed053419ec1621523a69048\AndroidManifest.xml:17:1-22:12
MERGED from [android.arch.lifecycle:livedata-core:1.1.0] C:\Users\Ryan\.gradle\caches\transforms-1\files-1.1\livedata-core-1.1.0.aar\4afc2a4625977a340c80d8b2708fccc0\AndroidManifest.xml:17:1-22:12
MERGED from [android.arch.lifecycle:viewmodel:1.1.0] C:\Users\Ryan\.gradle\caches\transforms-1\files-1.1\viewmodel-1.1.0.aar\507bcada87a29b45985bb8d247da24a6\AndroidManifest.xml:17:1-22:12
MERGED from [android.arch.core:runtime:1.1.0] C:\Users\Ryan\.gradle\caches\transforms-1\files-1.1\runtime-1.1.0.aar\f2c6cae1afeef492c6cc6902c8e70cc7\AndroidManifest.xml:17:1-22:12
INJECTED from C:\Users\Ryan\Desktop\upsscanner-app\platforms\android\app\src\main\AndroidManifest.xml:2:1-31:12
INJECTED from C:\Users\Ryan\Desktop\upsscanner-app\platforms\android\app\src\main\AndroidManifest.xml:2:1-31:12
INJECTED from C:\Users\Ryan\Desktop\upsscanner-app\platforms\android\app\src\main\AndroidManifest.xml:2:1-31:12
	package
		ADDED from C:\Users\Ryan\Desktop\upsscanner-app\platforms\android\app\src\main\AndroidManifest.xml:2:102-135
		INJECTED from C:\Users\Ryan\Desktop\upsscanner-app\platforms\android\app\src\main\AndroidManifest.xml
		INJECTED from C:\Users\Ryan\Desktop\upsscanner-app\platforms\android\app\src\main\AndroidManifest.xml
	android:versionName
		ADDED from C:\Users\Ryan\Desktop\upsscanner-app\platforms\android\app\src\main\AndroidManifest.xml:2:74-101
		INJECTED from C:\Users\Ryan\Desktop\upsscanner-app\platforms\android\app\src\main\AndroidManifest.xml
		INJECTED from C:\Users\Ryan\Desktop\upsscanner-app\platforms\android\app\src\main\AndroidManifest.xml
	android:hardwareAccelerated
		ADDED from C:\Users\Ryan\Desktop\upsscanner-app\platforms\android\app\src\main\AndroidManifest.xml:2:11-45
	xmlns:android
		ADDED from C:\Users\Ryan\Desktop\upsscanner-app\platforms\android\app\src\main\AndroidManifest.xml:2:136-194
	android:versionCode
		ADDED from C:\Users\Ryan\Desktop\upsscanner-app\platforms\android\app\src\main\AndroidManifest.xml:2:46-73
		INJECTED from C:\Users\Ryan\Desktop\upsscanner-app\platforms\android\app\src\main\AndroidManifest.xml
		INJECTED from C:\Users\Ryan\Desktop\upsscanner-app\platforms\android\app\src\main\AndroidManifest.xml
supports-screens
ADDED from C:\Users\Ryan\Desktop\upsscanner-app\platforms\android\app\src\main\AndroidManifest.xml:3:5-191
	android:largeScreens
		ADDED from C:\Users\Ryan\Desktop\upsscanner-app\platforms\android\app\src\main\AndroidManifest.xml:3:49-76
	android:smallScreens
		ADDED from C:\Users\Ryan\Desktop\upsscanner-app\platforms\android\app\src\main\AndroidManifest.xml:3:132-159
	android:normalScreens
		ADDED from C:\Users\Ryan\Desktop\upsscanner-app\platforms\android\app\src\main\AndroidManifest.xml:3:77-105
	android:xlargeScreens
		ADDED from C:\Users\Ryan\Desktop\upsscanner-app\platforms\android\app\src\main\AndroidManifest.xml:3:160-188
	android:resizeable
		ADDED from C:\Users\Ryan\Desktop\upsscanner-app\platforms\android\app\src\main\AndroidManifest.xml:3:106-131
	android:anyDensity
		ADDED from C:\Users\Ryan\Desktop\upsscanner-app\platforms\android\app\src\main\AndroidManifest.xml:3:23-48
uses-permission#android.permission.INTERNET
ADDED from C:\Users\Ryan\Desktop\upsscanner-app\platforms\android\app\src\main\AndroidManifest.xml:4:5-67
	android:name
		ADDED from C:\Users\Ryan\Desktop\upsscanner-app\platforms\android\app\src\main\AndroidManifest.xml:4:22-64
application
ADDED from C:\Users\Ryan\Desktop\upsscanner-app\platforms\android\app\src\main\AndroidManifest.xml:5:5-17:19
MERGED from [:barcodescanner-release-2.1.5:] C:\Users\Ryan\.gradle\caches\transforms-1\files-1.1\barcodescanner-release-2.1.5.aar\28313927d321a02aa919b1e73a1e0c5e\AndroidManifest.xml:11:5-12:19
MERGED from [:barcodescanner-release-2.1.5:] C:\Users\Ryan\.gradle\caches\transforms-1\files-1.1\barcodescanner-release-2.1.5.aar\28313927d321a02aa919b1e73a1e0c5e\AndroidManifest.xml:11:5-12:19
	android:supportsRtl
		ADDED from C:\Users\Ryan\Desktop\upsscanner-app\platforms\android\app\src\main\AndroidManifest.xml:5:114-140
	android:label
		ADDED from C:\Users\Ryan\Desktop\upsscanner-app\platforms\android\app\src\main\AndroidManifest.xml:5:81-113
	android:hardwareAccelerated
		ADDED from C:\Users\Ryan\Desktop\upsscanner-app\platforms\android\app\src\main\AndroidManifest.xml:5:18-52
	android:icon
		ADDED from C:\Users\Ryan\Desktop\upsscanner-app\platforms\android\app\src\main\AndroidManifest.xml:5:53-80
activity#com.phonegap.helloworld.MainActivity
ADDED from C:\Users\Ryan\Desktop\upsscanner-app\platforms\android\app\src\main\AndroidManifest.xml:6:9-11:20
	android:label
		ADDED from C:\Users\Ryan\Desktop\upsscanner-app\platforms\android\app\src\main\AndroidManifest.xml:6:97-134
	android:launchMode
		ADDED from C:\Users\Ryan\Desktop\upsscanner-app\platforms\android\app\src\main\AndroidManifest.xml:6:135-165
	android:windowSoftInputMode
		ADDED from C:\Users\Ryan\Desktop\upsscanner-app\platforms\android\app\src\main\AndroidManifest.xml:6:257-299
	android:configChanges
		ADDED from C:\Users\Ryan\Desktop\upsscanner-app\platforms\android\app\src\main\AndroidManifest.xml:6:19-96
	android:theme
		ADDED from C:\Users\Ryan\Desktop\upsscanner-app\platforms\android\app\src\main\AndroidManifest.xml:6:194-256
	android:name
		ADDED from C:\Users\Ryan\Desktop\upsscanner-app\platforms\android\app\src\main\AndroidManifest.xml:6:166-193
intent-filter#android.intent.action.MAIN+android.intent.category.LAUNCHER
ADDED from C:\Users\Ryan\Desktop\upsscanner-app\platforms\android\app\src\main\AndroidManifest.xml:7:13-10:29
	android:label
		ADDED from C:\Users\Ryan\Desktop\upsscanner-app\platforms\android\app\src\main\AndroidManifest.xml:7:28-65
action#android.intent.action.MAIN
ADDED from C:\Users\Ryan\Desktop\upsscanner-app\platforms\android\app\src\main\AndroidManifest.xml:8:17-69
	android:name
		ADDED from C:\Users\Ryan\Desktop\upsscanner-app\platforms\android\app\src\main\AndroidManifest.xml:8:25-66
category#android.intent.category.LAUNCHER
ADDED from C:\Users\Ryan\Desktop\upsscanner-app\platforms\android\app\src\main\AndroidManifest.xml:9:17-77
	android:name
		ADDED from C:\Users\Ryan\Desktop\upsscanner-app\platforms\android\app\src\main\AndroidManifest.xml:9:27-74
activity#com.google.zxing.client.android.CaptureActivity
ADDED from C:\Users\Ryan\Desktop\upsscanner-app\platforms\android\app\src\main\AndroidManifest.xml:12:9-311
	android:clearTaskOnLaunch
		ADDED from C:\Users\Ryan\Desktop\upsscanner-app\platforms\android\app\src\main\AndroidManifest.xml:12:19-51
	android:windowSoftInputMode
		ADDED from C:\Users\Ryan\Desktop\upsscanner-app\platforms\android\app\src\main\AndroidManifest.xml:12:261-308
	android:exported
		ADDED from C:\Users\Ryan\Desktop\upsscanner-app\platforms\android\app\src\main\AndroidManifest.xml:12:114-138
	android:configChanges
		ADDED from C:\Users\Ryan\Desktop\upsscanner-app\platforms\android\app\src\main\AndroidManifest.xml:12:52-113
	android:theme
		ADDED from C:\Users\Ryan\Desktop\upsscanner-app\platforms\android\app\src\main\AndroidManifest.xml:12:202-260
	android:name
		ADDED from C:\Users\Ryan\Desktop\upsscanner-app\platforms\android\app\src\main\AndroidManifest.xml:12:139-201
activity#com.google.zxing.client.android.encode.EncodeActivity
ADDED from C:\Users\Ryan\Desktop\upsscanner-app\platforms\android\app\src\main\AndroidManifest.xml:13:9-112
	android:label
		ADDED from C:\Users\Ryan\Desktop\upsscanner-app\platforms\android\app\src\main\AndroidManifest.xml:13:19-40
	android:name
		ADDED from C:\Users\Ryan\Desktop\upsscanner-app\platforms\android\app\src\main\AndroidManifest.xml:13:41-109
uses-sdk
ADDED from C:\Users\Ryan\Desktop\upsscanner-app\platforms\android\app\src\main\AndroidManifest.xml:18:5-74
INJECTED from C:\Users\Ryan\Desktop\upsscanner-app\platforms\android\app\src\main\AndroidManifest.xml:18:5-74
MERGED from [:barcodescanner-release-2.1.5:] C:\Users\Ryan\.gradle\caches\transforms-1\files-1.1\barcodescanner-release-2.1.5.aar\28313927d321a02aa919b1e73a1e0c5e\AndroidManifest.xml:7:5-9:41
MERGED from [:barcodescanner-release-2.1.5:] C:\Users\Ryan\.gradle\caches\transforms-1\files-1.1\barcodescanner-release-2.1.5.aar\28313927d321a02aa919b1e73a1e0c5e\AndroidManifest.xml:7:5-9:41
MERGED from [com.android.support:support-v4:27.1.1] C:\Users\Ryan\.gradle\caches\transforms-1\files-1.1\support-v4-27.1.1.aar\dc3417e6a5629dc9389eb13beef02185\AndroidManifest.xml:20:5-44
MERGED from [com.android.support:support-v4:27.1.1] C:\Users\Ryan\.gradle\caches\transforms-1\files-1.1\support-v4-27.1.1.aar\dc3417e6a5629dc9389eb13beef02185\AndroidManifest.xml:20:5-44
MERGED from [:CordovaLib] C:\Users\Ryan\Desktop\upsscanner-app\platforms\android\CordovaLib\build\intermediates\manifests\full\debug\AndroidManifest.xml:25:5-44
MERGED from [:CordovaLib] C:\Users\Ryan\Desktop\upsscanner-app\platforms\android\CordovaLib\build\intermediates\manifests\full\debug\AndroidManifest.xml:25:5-44
MERGED from [com.android.support:support-media-compat:27.1.1] C:\Users\Ryan\.gradle\caches\transforms-1\files-1.1\support-media-compat-27.1.1.aar\a2a0cbf7470e7ad0abddf0ba1dd96076\AndroidManifest.xml:20:5-44
MERGED from [com.android.support:support-media-compat:27.1.1] C:\Users\Ryan\.gradle\caches\transforms-1\files-1.1\support-media-compat-27.1.1.aar\a2a0cbf7470e7ad0abddf0ba1dd96076\AndroidManifest.xml:20:5-44
MERGED from [com.android.support:support-fragment:27.1.1] C:\Users\Ryan\.gradle\caches\transforms-1\files-1.1\support-fragment-27.1.1.aar\71e8c4d1333351c65b5fb952db842e48\AndroidManifest.xml:20:5-44
MERGED from [com.android.support:support-fragment:27.1.1] C:\Users\Ryan\.gradle\caches\transforms-1\files-1.1\support-fragment-27.1.1.aar\71e8c4d1333351c65b5fb952db842e48\AndroidManifest.xml:20:5-44
MERGED from [com.android.support:support-core-ui:27.1.1] C:\Users\Ryan\.gradle\caches\transforms-1\files-1.1\support-core-ui-27.1.1.aar\56dc943007aaa9f860c6d36d2171f3aa\AndroidManifest.xml:20:5-44
MERGED from [com.android.support:support-core-ui:27.1.1] C:\Users\Ryan\.gradle\caches\transforms-1\files-1.1\support-core-ui-27.1.1.aar\56dc943007aaa9f860c6d36d2171f3aa\AndroidManifest.xml:20:5-44
MERGED from [com.android.support:support-core-utils:27.1.1] C:\Users\Ryan\.gradle\caches\transforms-1\files-1.1\support-core-utils-27.1.1.aar\ec1d92fb76c55d51f93db210ec47dc20\AndroidManifest.xml:20:5-44
MERGED from [com.android.support:support-core-utils:27.1.1] C:\Users\Ryan\.gradle\caches\transforms-1\files-1.1\support-core-utils-27.1.1.aar\ec1d92fb76c55d51f93db210ec47dc20\AndroidManifest.xml:20:5-44
MERGED from [com.android.support:support-compat:27.1.1] C:\Users\Ryan\.gradle\caches\transforms-1\files-1.1\support-compat-27.1.1.aar\9432ddee0df6783777d8427e86932476\AndroidManifest.xml:20:5-44
MERGED from [com.android.support:support-compat:27.1.1] C:\Users\Ryan\.gradle\caches\transforms-1\files-1.1\support-compat-27.1.1.aar\9432ddee0df6783777d8427e86932476\AndroidManifest.xml:20:5-44
MERGED from [android.arch.lifecycle:runtime:1.1.0] C:\Users\Ryan\.gradle\caches\transforms-1\files-1.1\runtime-1.1.0.aar\68a221d15ed053419ec1621523a69048\AndroidManifest.xml:20:5-44
MERGED from [android.arch.lifecycle:runtime:1.1.0] C:\Users\Ryan\.gradle\caches\transforms-1\files-1.1\runtime-1.1.0.aar\68a221d15ed053419ec1621523a69048\AndroidManifest.xml:20:5-44
MERGED from [android.arch.lifecycle:livedata-core:1.1.0] C:\Users\Ryan\.gradle\caches\transforms-1\files-1.1\livedata-core-1.1.0.aar\4afc2a4625977a340c80d8b2708fccc0\AndroidManifest.xml:20:5-44
MERGED from [android.arch.lifecycle:livedata-core:1.1.0] C:\Users\Ryan\.gradle\caches\transforms-1\files-1.1\livedata-core-1.1.0.aar\4afc2a4625977a340c80d8b2708fccc0\AndroidManifest.xml:20:5-44
MERGED from [android.arch.lifecycle:viewmodel:1.1.0] C:\Users\Ryan\.gradle\caches\transforms-1\files-1.1\viewmodel-1.1.0.aar\507bcada87a29b45985bb8d247da24a6\AndroidManifest.xml:20:5-44
MERGED from [android.arch.lifecycle:viewmodel:1.1.0] C:\Users\Ryan\.gradle\caches\transforms-1\files-1.1\viewmodel-1.1.0.aar\507bcada87a29b45985bb8d247da24a6\AndroidManifest.xml:20:5-44
MERGED from [android.arch.core:runtime:1.1.0] C:\Users\Ryan\.gradle\caches\transforms-1\files-1.1\runtime-1.1.0.aar\f2c6cae1afeef492c6cc6902c8e70cc7\AndroidManifest.xml:20:5-44
MERGED from [android.arch.core:runtime:1.1.0] C:\Users\Ryan\.gradle\caches\transforms-1\files-1.1\runtime-1.1.0.aar\f2c6cae1afeef492c6cc6902c8e70cc7\AndroidManifest.xml:20:5-44
INJECTED from C:\Users\Ryan\Desktop\upsscanner-app\platforms\android\app\src\main\AndroidManifest.xml:18:5-74
	android:targetSdkVersion
		ADDED from C:\Users\Ryan\Desktop\upsscanner-app\platforms\android\app\src\main\AndroidManifest.xml:18:42-71
	android:minSdkVersion
		ADDED from C:\Users\Ryan\Desktop\upsscanner-app\platforms\android\app\src\main\AndroidManifest.xml:18:15-41
		INJECTED from C:\Users\Ryan\Desktop\upsscanner-app\platforms\android\app\src\main\AndroidManifest.xml
		INJECTED from C:\Users\Ryan\Desktop\upsscanner-app\platforms\android\app\src\main\AndroidManifest.xml
uses-permission#android.permission.CAMERA
ADDED from C:\Users\Ryan\Desktop\upsscanner-app\platforms\android\app\src\main\AndroidManifest.xml:19:5-65
	android:name
		ADDED from C:\Users\Ryan\Desktop\upsscanner-app\platforms\android\app\src\main\AndroidManifest.xml:19:22-62
uses-permission#android.permission.FLASHLIGHT
ADDED from C:\Users\Ryan\Desktop\upsscanner-app\platforms\android\app\src\main\AndroidManifest.xml:20:5-69
	android:name
		ADDED from C:\Users\Ryan\Desktop\upsscanner-app\platforms\android\app\src\main\AndroidManifest.xml:20:22-66
uses-feature#android.hardware.camera
ADDED from C:\Users\Ryan\Desktop\upsscanner-app\platforms\android\app\src\main\AndroidManifest.xml:21:5-84
	android:required
		ADDED from C:\Users\Ryan\Desktop\upsscanner-app\platforms\android\app\src\main\AndroidManifest.xml:21:58-81
	android:name
		ADDED from C:\Users\Ryan\Desktop\upsscanner-app\platforms\android\app\src\main\AndroidManifest.xml:21:19-57
uses-permission#android.permission.WRITE_EXTERNAL_STORAGE
ADDED from C:\Users\Ryan\Desktop\upsscanner-app\platforms\android\app\src\main\AndroidManifest.xml:22:5-81
	android:name
		ADDED from C:\Users\Ryan\Desktop\upsscanner-app\platforms\android\app\src\main\AndroidManifest.xml:22:22-78
uses-permission#android.permission.RECORD_AUDIO
ADDED from C:\Users\Ryan\Desktop\upsscanner-app\platforms\android\app\src\main\AndroidManifest.xml:23:5-71
	android:name
		ADDED from C:\Users\Ryan\Desktop\upsscanner-app\platforms\android\app\src\main\AndroidManifest.xml:23:22-68
uses-permission#android.permission.RECORD_VIDEO
ADDED from C:\Users\Ryan\Desktop\upsscanner-app\platforms\android\app\src\main\AndroidManifest.xml:24:5-71
	android:name
		ADDED from C:\Users\Ryan\Desktop\upsscanner-app\platforms\android\app\src\main\AndroidManifest.xml:24:22-68
uses-permission#android.permission.READ_EXTERNAL_STORAGE
ADDED from C:\Users\Ryan\Desktop\upsscanner-app\platforms\android\app\src\main\AndroidManifest.xml:25:5-80
	android:name
		ADDED from C:\Users\Ryan\Desktop\upsscanner-app\platforms\android\app\src\main\AndroidManifest.xml:25:22-77
uses-permission#android.permission.ACCESS_COARSE_LOCATION
ADDED from C:\Users\Ryan\Desktop\upsscanner-app\platforms\android\app\src\main\AndroidManifest.xml:26:5-81
	android:name
		ADDED from C:\Users\Ryan\Desktop\upsscanner-app\platforms\android\app\src\main\AndroidManifest.xml:26:22-78
uses-permission#android.permission.ACCESS_FINE_LOCATION
ADDED from C:\Users\Ryan\Desktop\upsscanner-app\platforms\android\app\src\main\AndroidManifest.xml:27:5-79
	android:name
		ADDED from C:\Users\Ryan\Desktop\upsscanner-app\platforms\android\app\src\main\AndroidManifest.xml:27:22-76
uses-feature#android.hardware.location.gps
ADDED from C:\Users\Ryan\Desktop\upsscanner-app\platforms\android\app\src\main\AndroidManifest.xml:28:5-66
	android:name
		ADDED from C:\Users\Ryan\Desktop\upsscanner-app\platforms\android\app\src\main\AndroidManifest.xml:28:19-63
uses-permission#android.permission.ACCESS_NETWORK_STATE
ADDED from C:\Users\Ryan\Desktop\upsscanner-app\platforms\android\app\src\main\AndroidManifest.xml:29:5-79
	android:name
		ADDED from C:\Users\Ryan\Desktop\upsscanner-app\platforms\android\app\src\main\AndroidManifest.xml:29:22-76
uses-permission#android.permission.VIBRATE
ADDED from C:\Users\Ryan\Desktop\upsscanner-app\platforms\android\app\src\main\AndroidManifest.xml:30:5-66
	android:name
		ADDED from C:\Users\Ryan\Desktop\upsscanner-app\platforms\android\app\src\main\AndroidManifest.xml:30:22-63
meta-data#android.support.FILE_PROVIDER_PATHS
ADDED from C:\Users\Ryan\Desktop\upsscanner-app\platforms\android\app\src\main\AndroidManifest.xml:15:13-116
	android:resource
		ADDED from C:\Users\Ryan\Desktop\upsscanner-app\platforms\android\app\src\main\AndroidManifest.xml:15:75-113
	android:name
		ADDED from C:\Users\Ryan\Desktop\upsscanner-app\platforms\android\app\src\main\AndroidManifest.xml:15:24-74
